…
city_results
```

    ## # A tibble: 47 × 4
    ##    city_state         OR CI_lower CI_upper
    ##    <chr>           <dbl>    <dbl>    <dbl>
    ##  1 New York, NY    0.262    0.138    0.499
    ##  2 Baton Rouge, LA 0.381    0.209    0.695
    ##  3 Omaha, NE       0.382    0.203    0.721
    ##  4 Cincinnati, OH  0.400    0.236    0.677
    ##  5 Chicago, IL     0.410    0.336    0.501
    ##  6 Long Beach, CA  0.410    0.156    1.08 
    ##  7 San Diego, CA   0.413    0.200    0.855
    ##  8 Baltimore, MD   0.426    0.325    0.558
    ##  9 Pittsburgh, PA  0.431    0.265    0.700
    ## 10 Denver, CO      0.479    0.236    0.971
    ## # ℹ 37 more rows
…
